<svg width="61" height="13" viewBox="0 0 61 13" fill="none" xmlns="http://www.w3.org/2000/svg">
<rect x="42" width="19" height="13" fill="#26D3F9"/>
<rect x="28" width="12" height="13" fill="#26D3F9"/>
<rect x="18" width="8" height="13" fill="#26D3F9"/>
<rect x="12" width="4" height="13" fill="#26D3F9"/>
<rect x="7" width="3" height="13" fill="#26D3F9"/>
<rect x="3" width="2" height="13" fill="#26D3F9"/>
<rect width="1" height="13" fill="#26D3F9"/>
</svg>
